{
    "apis": [
        {
            "name": "data",
            "apis" : {
                "content": "/gwp/content",
                "doc": "/gwd/doc/json",
                "doc-xml": "/gwd/doc",
                "doc-xml-download": "/gwd/doc/xml/download",
                "filter": "/gwd/search/filter/json",
                "timeline": "/gwd/filter/timeline/json",
                "keyword": "/gwp/keyword",
                "keyword-value": "/gwp/keywordValue",
                "recent-collection-summary": "/gwd/recent/collection/expressions/summary/json",
                "recent-summary" : "/gwd/recent/expressions/summary/json",
                "search-by-country" : "/gwd/search/countries/summary/json",
                "search-by-language" : "/gwd/search/languages/summary/json",
                "search-by-subject" : "/gwd/search/keywords/summary/json",
                "search-by-year": "/gwd/search/years/summary/json",
                "search-grouped": "/gwd/searchAC/json" ,
                "short-filter-cache": "/gwp/short-filter-cache",
                "smart-filter-cache": "/gwp/smart-filter-cache",
                "themes-summary" : "/gwd/themes/expressions/summary/json",
                "search-fulltext" : "/gwd/doc/search/json",
                "search-collection-xml" : "/gwd/docCollection/search/xml/json",
                "search-category" : "/gwd/search-category/json",
                "bungenix" : "/gwp/bungenix.json",
                "save-search-name" : "/gwu/save/search",
                "search-from-save-name" : "/gwu/search/search",
                "recent-search-from-save-name" : "/gwu/latest/search",
                "keycloak" : "/gwp/auth.json",
                "advance-search": "/gwd/search/advance/json",
                "download-collection": "/gwd/collection/download"
            }
        },
        {
            "name": "local",
            "apis": {
                "keycloak": "/keycloak.json"
            }
        }
    ]
}
