{
    "langs": [
        {
            "lang": "en",
            "origin": "en",
            "default": true,
            "content": "english"
        },        
        {
            "lang": "fr",
            "origin": "fr",
            "content": "français"
        }
    ]
}